<mxfile host="65bd71144e">
    <diagram id="DQODlrZU8SHE6DMebZtU" name="Page-1">
        <mxGraphModel dx="1197" dy="862" grid="1" gridSize="10" guides="1" tooltips="1" connect="1" arrows="1" fold="1" page="1" pageScale="1" pageWidth="827" pageHeight="1169" math="0" shadow="0">
            <root>
                <mxCell id="0"/>
                <mxCell id="1" parent="0"/>
                <mxCell id="5" value="Role" style="swimlane;" parent="1" vertex="1">
                    <mxGeometry x="40" y="280" width="200" height="200" as="geometry">
                        <mxRectangle x="40" y="280" width="150" height="30" as="alternateBounds"/>
                    </mxGeometry>
                </mxCell>
                <mxCell id="15" value="&lt;b style=&quot;line-height: 1.7&quot;&gt;// normal&lt;/b&gt;" style="text;html=1;align=center;verticalAlign=middle;resizable=0;points=[];autosize=1;strokeColor=none;fillColor=none;" vertex="1" parent="5">
                    <mxGeometry x="5" y="35" width="70" height="30" as="geometry"/>
                </mxCell>
            </root>
        </mxGraphModel>
    </diagram>
</mxfile>